<?xml version="1.0" encoding="utf-8"?>
<COLLADA xmlns="http://www.collada.org/2005/11/COLLADASchema" version="1.4.1" xmlns:xsi="http://www.w3.org/2001/XMLSchema-instance">
  <asset>
    <contributor>
      <author>Blender User</author>
      <authoring_tool>Blender 2.79.0 commit date:2018-03-22, commit time:14:10, hash:f4dc9f9d68b</authoring_tool>
    </contributor>
    <created>2019-01-18T20:25:51</created>
    <modified>2019-01-18T20:25:51</modified>
    <unit name="meter" meter="1"/>
    <up_axis>Z_UP</up_axis>
  </asset>
  <library_cameras>
    <camera id="Camera-camera" name="Camera">
      <optics>
        <technique_common>
          <perspective>
            <xfov sid="xfov">49.13434</xfov>
            <aspect_ratio>1.777778</aspect_ratio>
            <znear sid="znear">0.1</znear>
            <zfar sid="zfar">100</zfar>
          </perspective>
        </technique_common>
      </optics>
      <extra>
        <technique profile="blender">
          <shiftx sid="shiftx" type="float">0</shiftx>
          <shifty sid="shifty" type="float">0</shifty>
          <YF_dofdist sid="YF_dofdist" type="float">0</YF_dofdist>
        </technique>
      </extra>
    </camera>
  </library_cameras>
  <library_lights>
    <light id="Lamp-light" name="Lamp">
      <technique_common>
        <point>
          <color sid="color">1 1 1</color>
          <constant_attenuation>1</constant_attenuation>
          <linear_attenuation>0</linear_attenuation>
          <quadratic_attenuation>0.00111109</quadratic_attenuation>
        </point>
      </technique_common>
      <extra>
        <technique profile="blender">
          <type sid="type" type="int">0</type>
          <flag sid="flag" type="int">0</flag>
          <mode sid="mode" type="int">8192</mode>
          <gamma sid="blender_gamma" type="float">1</gamma>
          <red sid="red" type="float">1</red>
          <green sid="green" type="float">1</green>
          <blue sid="blue" type="float">1</blue>
          <shadow_r sid="blender_shadow_r" type="float">0</shadow_r>
          <shadow_g sid="blender_shadow_g" type="float">0</shadow_g>
          <shadow_b sid="blender_shadow_b" type="float">0</shadow_b>
          <energy sid="blender_energy" type="float">1</energy>
          <dist sid="blender_dist" type="float">29.99998</dist>
          <spotsize sid="spotsize" type="float">75</spotsize>
          <spotblend sid="spotblend" type="float">0.15</spotblend>
          <halo_intensity sid="blnder_halo_intensity" type="float">1</halo_intensity>
          <att1 sid="att1" type="float">0</att1>
          <att2 sid="att2" type="float">1</att2>
          <falloff_type sid="falloff_type" type="int">2</falloff_type>
          <clipsta sid="clipsta" type="float">1.000799</clipsta>
          <clipend sid="clipend" type="float">30.002</clipend>
          <bias sid="bias" type="float">1</bias>
          <soft sid="soft" type="float">3</soft>
          <compressthresh sid="compressthresh" type="float">0.04999995</compressthresh>
          <bufsize sid="bufsize" type="int">2880</bufsize>
          <samp sid="samp" type="int">3</samp>
          <buffers sid="buffers" type="int">1</buffers>
          <filtertype sid="filtertype" type="int">0</filtertype>
          <bufflag sid="bufflag" type="int">0</bufflag>
          <buftype sid="buftype" type="int">2</buftype>
          <ray_samp sid="ray_samp" type="int">1</ray_samp>
          <ray_sampy sid="ray_sampy" type="int">1</ray_sampy>
          <ray_sampz sid="ray_sampz" type="int">1</ray_sampz>
          <ray_samp_type sid="ray_samp_type" type="int">0</ray_samp_type>
          <area_shape sid="area_shape" type="int">1</area_shape>
          <area_size sid="area_size" type="float">0.1</area_size>
          <area_sizey sid="area_sizey" type="float">0.1</area_sizey>
          <area_sizez sid="area_sizez" type="float">1</area_sizez>
          <adapt_thresh sid="adapt_thresh" type="float">0.000999987</adapt_thresh>
          <ray_samp_method sid="ray_samp_method" type="int">1</ray_samp_method>
          <shadhalostep sid="shadhalostep" type="int">0</shadhalostep>
          <sun_effect_type sid="sun_effect_type" type="int">0</sun_effect_type>
          <skyblendtype sid="skyblendtype" type="int">1</skyblendtype>
          <horizon_brightness sid="horizon_brightness" type="float">1</horizon_brightness>
          <spread sid="spread" type="float">1</spread>
          <sun_brightness sid="sun_brightness" type="float">1</sun_brightness>
          <sun_size sid="sun_size" type="float">1</sun_size>
          <backscattered_light sid="backscattered_light" type="float">1</backscattered_light>
          <sun_intensity sid="sun_intensity" type="float">1</sun_intensity>
          <atm_turbidity sid="atm_turbidity" type="float">2</atm_turbidity>
          <atm_extinction_factor sid="atm_extinction_factor" type="float">1</atm_extinction_factor>
          <atm_distance_factor sid="atm_distance_factor" type="float">1</atm_distance_factor>
          <skyblendfac sid="skyblendfac" type="float">1</skyblendfac>
          <sky_exposure sid="sky_exposure" type="float">1</sky_exposure>
          <sky_colorspace sid="sky_colorspace" type="int">0</sky_colorspace>
        </technique>
      </extra>
    </light>
  </library_lights>
  <library_images/>
  <library_effects>
    <effect id="Material_001-effect">
      <profile_COMMON>
        <technique sid="common">
          <phong>
            <emission>
              <color sid="emission">0 0 0 1</color>
            </emission>
            <ambient>
              <color sid="ambient">0 0 0 1</color>
            </ambient>
            <diffuse>
              <color sid="diffuse">0.2 0.2 0.2 1</color>
            </diffuse>
            <specular>
              <color sid="specular">0.5 0.5 0.5 1</color>
            </specular>
            <shininess>
              <float sid="shininess">50</float>
            </shininess>
            <index_of_refraction>
              <float sid="index_of_refraction">1</float>
            </index_of_refraction>
          </phong>
        </technique>
      </profile_COMMON>
    </effect>
  </library_effects>
  <library_materials>
    <material id="Material_001-material" name="Material_001">
      <instance_effect url="#Material_001-effect"/>
    </material>
  </library_materials>
  <library_geometries>
    <geometry id="link_0-mesh" name="link 0">
      <mesh>
        <source id="link_0-mesh-positions">
          <float_array id="link_0-mesh-positions-array" count="813">-0.03482198 0.02222496 0.007683455 -0.03581851 0.02222496 0.005614161 -0.03482198 -0.01428747 0.007683455 -0.03581851 -0.01428747 0.005614161 -0.03350621 0.02222496 0.007766187 -0.03218013 0.02222496 0.009505808 -0.03350621 0.03016245 0.007766187 -0.03218013 0.03016245 0.009505808 -0.0335282 -0.01428747 0.009581148 -0.0335282 0.02222496 0.009581148 -0.0364955 0.02222496 0.003419458 -0.0364955 -0.01428747 0.003419458 -0.03455114 0.03016245 0.005844533 -0.03455114 0.02222496 0.005844533 -0.03683781 0.02222496 0.001148343 -0.03683781 -0.01428747 0.001148343 -0.03529053 0.03016245 0.003785908 -0.03529053 0.02222496 0.003785908 -0.03060406 0.02222496 0.01102262 -0.03060406 0.03016245 0.01102262 -0.03196597 -0.01428747 0.0112648 -0.03196597 0.02222496 0.0112648 -0.03570699 0.03016245 0.001638531 -0.03570699 0.02222496 0.001638531 -0.0249508 0.03016245 0.001984357 -0.02432012 0.03016245 0.002806305 -0.0249508 -0.01428747 0.001984357 -0.02432012 -0.01428747 0.002806305 -0.03683781 0.02222496 -0.001148343 -0.03683781 -0.01428747 -0.001148343 -0.02534729 -0.01428747 0.001027166 -0.02534729 0.03016245 0.001027166 -0.0357908 0.03016245 -5.4725e-4 -0.0357908 0.02222496 -5.4725e-4 -0.02881497 0.02222496 0.01228106 -0.02881497 0.03016245 0.01228106 -0.03017032 -0.01428747 0.0126968 -0.03017032 0.02222496 0.0126968 -0.0364955 0.02222496 -0.003419458 -0.0364955 -0.01428747 -0.003419458 -0.02349817 0.03016245 0.003436982 -0.02349817 -0.01428747 0.003436982 -0.03581851 0.02222496 -0.005614161 -0.03581851 -0.01428747 -0.005614161 -0.02548253 -0.01428747 0 -0.02548253 0.03016245 0 -0.03553992 0.03016245 -0.002720177 -0.03553992 0.02222496 -0.002720177 -0.02685469 0.02222496 0.01325166 -0.02685469 0.03016245 0.01325166 -0.02818125 -0.01428747 0.01384514 -0.02818125 0.02222496 0.01384514 -0.03496032 0.03016245 -0.004829406 -0.03496032 0.02222496 -0.004829406 -0.02254098 0.03016245 0.003833472 -0.02254098 -0.01428747 0.003833472 -0.03482198 0.02222496 -0.007683455 -0.03482198 -0.01428747 -0.007683455 -0.02548253 -0.01428747 0 -0.02534729 -0.01428747 -0.001027166 -0.02548253 0.03016245 0 -0.02534729 0.03016245 -0.001027166 -0.03406554 0.03016245 -0.006825387 -0.03406554 0.02222496 -0.006825387 0.004558444 -0.0112645 0.01536697 0.003914177 -0.01151508 0.01536697 0.004558444 -0.0112645 -0.01536697 0.003914177 -0.01151508 -0.01536697 -0.02476924 0.02222496 0.01391166 -0.02476924 0.03016245 0.01391166 -0.02604329 -0.01428747 0.01468425 -0.02604329 0.02222496 0.01468425 -0.0335282 0.02222496 -0.009581148 -0.0335282 -0.01428747 -0.009581148 -0.03287655 0.03016245 -0.008661389 -0.03287655 0.02222496 -0.008661389 0.005133271 -0.01088047 -0.01536697 0.005133271 -0.01088047 0.01536697 -0.02151376 0.03016245 0.003968715 -0.02151376 -0.01428747 0.003968715 -0.02260744 0.02222496 0.01424556 -0.02260744 0.03016245 0.01424556 -0.0249508 -0.01428747 -0.001984357 -0.0249508 0.03016245 -0.001984357 -0.003202497 -0.01342201 -0.01536697 -0.003202497 -0.01342201 0.01536697 -0.02048659 -0.01428747 0.003833472 -0.02048659 0.03016245 0.003833472 -0.02380412 -0.01428747 0.01519531 -0.02380412 0.02222496 0.01519531 -0.03196597 0.02222496 -0.0112648 -0.03196597 -0.01428747 -0.0112648 -0.03142118 0.03016245 -0.01029443 -0.03142118 0.02222496 -0.01029443 0 -0.002393901 -0.01536697 -6.196e-4 -0.002312362 -0.01536697 0 -0.002393901 0.01536697 -6.196e-4 -0.002312362 0.01536697 0 -0.002393901 0.01536697 6.196e-4 -0.002312362 0.01536697 0 -0.002393901 -0.01536697 6.196e-4 -0.002312362 -0.01536697 0.0056113 -0.0103811 -0.01536697 0.0056113 -0.0103811 0.01536697 -0.0195294 0.03016245 0.003436982 -0.0195294 -0.01428747 0.003436982 -0.02151376 0.03016245 0.01428747 -0.02151376 0.02222496 0.01428747 -0.02432012 -0.01428747 -0.002806305 -0.02432012 0.03016245 -0.002806305 -0.005365848 -0.01390159 0.01536697 -0.005365848 -0.01390159 -0.01536697 -0.01870745 0.03016245 0.002806305 -0.01870745 -0.01428747 0.002806305 -0.01242345 0.03016245 0.01102262 -0.0142126 0.03016245 0.01228106 -0.01242345 0.02222496 0.01102262 -0.0142126 0.02222496 0.01228106 -0.02151376 -0.01428747 0.01536697 -0.02151376 0.02222496 0.01536697 -0.03017032 0.02222496 -0.0126968 -0.03017032 -0.01428747 -0.0126968 -0.02973365 0.03016245 -0.01168614 -0.02973365 0.02222496 -0.01168614 -0.00119692 -0.002073168 -0.01536697 -0.00119692 -0.002073168 0.01536697 0.00119692 -0.002073168 0.01536697 0.00119692 -0.002073168 -0.01536697 0.005969941 -0.009790062 -0.01536697 0.005969941 -0.009790062 0.01536697 -0.01084738 0.02222496 0.009505808 -0.01084738 0.03016245 0.009505808 -0.01807671 0.03016245 0.001984357 -0.01807671 -0.01428747 0.001984357 -0.01617288 0.03016245 0.01325166 -0.01617288 0.02222496 0.01325166 -0.02042007 0.03016245 0.01424556 -0.02042007 0.02222496 0.01424556 -0.02349817 -0.01428747 -0.003436982 -0.02349817 0.03016245 -0.003436982 0.002073168 -0.00119692 -0.01536697 0.001692771 -0.001692771 -0.01536697 0.002073168 -0.00119692 0.01536697 0.001692771 -0.001692771 0.01536697 0.002312362 -6.196e-4 0.01536697 0.002312362 -6.196e-4 -0.01536697 -0.009521365 0.02222496 0.007766187 -0.009521365 0.03016245 0.007766187 -0.007562756 -0.01419079 0.01536697 -0.007562756 -0.01419079 -0.01536697 -0.01825833 0.03016245 0.01391166 -0.01825833 0.02222496 0.01391166 -0.02818125 0.02222496 -0.01384514 -0.02818125 -0.01428747 -0.01384514 -0.02785342 0.03016245 -0.01280391 -0.02785342 0.02222496 -0.01280391 -0.002393901 0 0.01536697 -0.002312362 -6.196e-4 0.01536697 -0.002393901 0 -0.01536697 -0.002312362 -6.196e-4 -0.01536697 -0.001692771 -0.001692771 -0.01536697 -0.001692771 -0.001692771 0.01536697 0.006192147 -0.009135425 -0.01536697 0.006192147 -0.009135425 0.01536697 0.002393901 0 0.01536697 0.002393901 0 -0.01536697 -0.008476376 0.03016245 0.005844533 -0.008476376 0.02222496 0.005844533 -0.01768028 0.03016245 0.001027166 -0.01768028 -0.01428747 0.001027166 -0.002312362 6.196e-4 0.01536697 -0.002393901 0 0.01536697 -0.002312362 6.196e-4 -0.01536697 -0.002393901 0 -0.01536697 -0.02254098 -0.01428747 -0.003833472 -0.02254098 0.03016245 -0.003833472 -0.002073168 -0.00119692 0.01536697 -0.002073168 -0.00119692 -0.01536697 0.002312362 6.196e-4 -0.01536697 0.002393901 0 -0.01536697 0.002312362 6.196e-4 0.01536697 0.002393901 0 0.01536697 -0.00773698 0.02222496 0.003785908 -0.00773698 0.03016245 0.003785908 -0.009776473 -0.01428747 0.01536697 -0.009776473 -0.01428747 -0.01536697 -0.01754504 0.03016245 0 -0.01754504 -0.01428747 0 0.002073168 0.00119692 0.01536697 0.002073168 0.00119692 -0.01536697 -0.002073168 0.00119692 0.01536697 -0.002073168 0.00119692 -0.01536697 -0.02604329 0.02222496 -0.01468425 -0.02604329 -0.01428747 -0.01468425 -0.0258246 0.03016245 -0.01362162 -0.0258246 0.02222496 -0.01362162 0.006267428 -0.008448243 -0.01536697 0.006267428 -0.008448243 0.01536697 -0.007320523 0.02222496 0.001638531 -0.007320523 0.03016245 0.001638531 0.001692771 0.001692771 0.01536697 0.001692771 0.001692771 -0.01536697 -0.001692771 0.001692771 0.01536697 -0.001692771 0.001692771 -0.01536697 -0.02151376 -0.01428747 -0.003968715 -0.02151376 0.03016245 -0.003968715 -0.01754504 0.03016245 0 -0.01768028 0.03016245 -0.001027166 -0.01754504 -0.01428747 0 -0.01768028 -0.01428747 -0.001027166 0.00119692 0.002073168 0.01536697 0.00119692 0.002073168 -0.01536697 -0.00119692 0.002073168 -0.01536697 -0.00119692 0.002073168 0.01536697 6.196e-4 0.002312362 0.01536697 0.006267428 0.02222496 0.01536697 -0.002393901 0 0.01536697 -6.196e-4 0.002312362 0.01536697 0 0.002393901 0.01536697 0.002393901 0 0.01536697 0 -0.002393901 0.01536697 -0.02380412 0.02222496 -0.01519531 -0.02380412 -0.01428747 -0.01519531 -0.02369475 0.03016245 -0.01412004 -0.02369475 0.02222496 -0.01412004 0.006267428 0.02222496 -0.01536697 -0.007236778 0.02222496 -5.4725e-4 -0.007236778 0.03016245 -5.4725e-4 6.196e-4 0.002312362 -0.01536697 -6.196e-4 0.002312362 -0.01536697 -0.02151376 -0.01428747 -0.01536697 -0.02151376 0.02222496 -0.01536697 -0.02048659 -0.01428747 -0.003833472 -0.02048659 0.03016245 -0.003833472 -0.0195294 -0.01428747 -0.003436982 -0.01807671 -0.01428747 -0.001984357 -0.01870745 -0.01428747 -0.002806305 -0.01754504 -0.01428747 0 -0.02548253 -0.01428747 0 -0.007487595 0.03016245 -0.002720177 -0.007487595 0.02222496 -0.002720177 -0.01807671 0.03016245 -0.001984357 0 0.002393901 0.01536697 0 0.002393901 -0.01536697 0 0.002393901 0.01536697 0 0.002393901 -0.01536697 -0.02151376 0.03016245 -0.01428747 -0.02151376 0.02222496 -0.01428747 -0.00806725 0.02222496 -0.004829406 -0.00806725 0.03016245 -0.004829406 -0.01870745 0.03016245 -0.002806305 -0.01933282 0.03016245 -0.01412004 -0.01933282 0.02222496 -0.01412004 -0.0195294 0.03016245 -0.003436982 -0.008962035 0.02222496 -0.006825387 -0.008962035 0.03016245 -0.006825387 0.002393901 0 -0.01536697 0 -0.002393901 -0.01536697 -0.002393901 0 -0.01536697 0 0.002393901 -0.01536697 -0.01015102 0.03016245 -0.008661389 -0.01015102 0.02222496 -0.008661389 -0.01720297 0.03016245 -0.01362162 -0.01720297 0.02222496 -0.01362162 -0.02548253 0.03016245 0 -0.01160633 0.03016245 -0.01029443 -0.01329392 0.03016245 -0.01168614 -0.01517415 0.03016245 -0.01280391 -0.01160633 0.02222496 -0.01029443 -0.01517415 0.02222496 -0.01280391 -0.01329392 0.02222496 -0.01168614</float_array>
          <technique_common>
            <accessor source="#link_0-mesh-positions-array" count="271" stride="3">
              <param name="X" type="float"/>
              <param name="Y" type="float"/>
              <param name="Z" type="float"/>
            </accessor>
          </technique_common>
        </source>
        <source id="link_0-mesh-normals">
          <float_array id="link_0-mesh-normals-array" count="1074">-0.9009692 0 0.4338832 -0.9009693 0 0.433883 -0.7952933 0 0.6062251 -0.7952927 0 0.6062257 -0.826239 0 0.5633198 -0.8262388 0 0.5633202 -0.9555726 0 0.294756 -0.9555726 0 0.2947558 -0.878512 0 0.4777205 -0.8785123 0 0.4777198 -0.9888309 0 0.1490421 -0.9888309 0 0.1490421 -0.9411399 0 0.3380174 -0.9411401 0 0.3380169 -0.6934328 0 0.7205214 -0.7330521 0 0.6801726 -0.733052 0 0.6801726 -0.9817084 0 0.1903914 -0.9817082 0 0.1903914 0.7933531 0 -0.6087619 0.7933533 0 -0.6087616 -1 0 0 0.9238793 0 -0.3826841 0.9238793 0 -0.3826842 -0.9992662 0 0.03830206 -0.9992662 0 0.03830206 -0.5753186 0 0.8179295 -0.6234894 0 0.7818319 -0.6234898 0 0.7818316 -0.9888309 0 -0.1490421 -0.9888309 0 -0.1490421 0.6087618 0 -0.7933531 0.6087622 0 -0.7933529 -0.9555726 0 -0.2947558 -0.9555726 0 -0.294756 0.9914449 0 -0.1305261 0.9914449 0 -0.1305261 -0.9934022 0 -0.1146831 -0.9934022 0 -0.1146831 -0.4437198 0 0.8961657 -0.4437196 0 0.8961657 -0.5000004 0 0.8660252 -0.5 0 0.8660255 -0.9642532 0 -0.2649827 -0.9642532 0 -0.2649826 0.3826835 0 -0.9238796 0.382684 0 -0.9238794 -0.9009693 0 -0.433883 -0.9009692 0 -0.4338832 0.9914449 0 0.1305261 0.9914449 0 0.1305261 -0.912504 0 -0.4090678 -0.9125041 0 -0.4090676 0.3624387 -0.9320077 0 0.3624389 -0.9320076 0 -0.3017206 0 0.9533965 -0.3017212 0 0.9533962 -0.3653411 0 0.9308738 -0.3653399 0 0.9308742 -0.826239 0 -0.5633198 -0.8262388 0 -0.5633202 -0.8393653 0 -0.5435677 -0.8393656 0 -0.5435675 0.5555704 -0.8314695 0 0.1305264 0 -0.9914448 0.1305258 0 -0.991445 -0.1526495 0 0.9882805 -0.1526494 0 0.9882804 0.9238793 0 0.3826842 0.9238793 0 0.3826841 0.258819 -0.9659259 0 0.2588191 -0.9659259 0 -0.1305267 0 -0.9914448 -0.1305261 0 -0.9914449 -0.222521 0 0.9749279 -0.733052 0 -0.6801726 -0.7330521 0 -0.6801726 -0.7465532 0 -0.6653258 -0.7465538 0 -0.6653251 0.1305263 0.9914449 0 -0.1305263 0.9914449 0 0.7223629 -0.6915143 0 0.7223642 -0.6915128 0 -0.3826839 0 -0.9238793 -0.3826835 0 -0.9238796 -0.03830099 0 0.9992663 -0.03830265 0 0.9992663 0.7933531 0 0.6087619 0.7933533 0 0.6087616 0.2164397 -0.976296 0 -0.6087614 0 -0.7933535 -0.608761 0 -0.7933537 0.5753188 0 0.8179293 0.575319 0 0.8179293 -0.07473129 0 0.9972037 -0.07472991 0 0.9972038 -0.6234894 0 -0.7818319 -0.6234898 0 -0.7818316 -0.6362416 0 -0.77149 -0.6362426 0 -0.7714892 0.382683 0.9238798 0 0.3826829 0.9238798 0 -0.382683 0.9238798 0 -0.3826829 0.9238798 0 0.8549119 -0.5187734 0 0.8549124 -0.5187724 0 0.6934326 0 0.7205216 0.6934323 0 0.7205218 -0.7933542 0 -0.6087604 -0.793354 0 -0.6087607 0.4437198 0 0.8961657 0.4437201 0 0.8961655 0.03830099 0 0.9992663 0.03830271 0 0.9992663 0.6087618 0 0.7933531 0.6087622 0 0.7933529 -0.7933528 0.6087622 0 -0.6087622 0.7933529 0 -0.6087625 0.7933526 0 -0.9238798 0.3826832 0 0.7952929 0 0.6062254 0.795293 0 0.6062253 0.1305255 -0.991445 0 0.1305255 -0.991445 0 0.3017201 0 0.9533966 0.3017211 0 0.9533963 0.1526494 0 0.9882804 0.1526495 0 0.9882805 -0.5000005 0 -0.8660252 -0.4999999 0 -0.8660255 -0.5110189 0 -0.8595695 0.9914448 0.130527 0 0.991445 0.1305255 0 0.6087625 0.7933526 0 0.6087622 0.7933529 0 0.9469295 -0.3214416 0 0.9469304 -0.3214392 0 -0.991445 0.1305255 0 -0.9914448 0.130527 0 0.8785125 0 0.4777197 0.8785123 0 0.4777199 -0.9238793 0 -0.3826841 -0.9238793 0 -0.3826842 0.991445 -0.1305255 0 0.9914448 -0.130527 0 0.3826835 0 0.9238796 0.3826839 0 0.9238793 0.9238798 0.3826832 0 0.7933528 0.6087622 0 -0.991445 -0.1305255 0 -0.9914448 -0.130527 0 0.9411403 0 0.3380165 0.9411402 0 0.3380165 0.04361969 -0.9990483 0 0.04361975 -0.9990483 0 -0.9914449 0 -0.1305261 -0.9914449 0 -0.1305261 -0.9238798 -0.3826832 0 0.9238798 -0.3826832 0 -0.3653411 0 -0.9308738 -0.3653399 0 -0.9308742 -0.3738166 0 -0.9275026 -0.3738172 0 -0.9275025 0.9940565 -0.1088659 0 0.9817084 0 0.1903911 0.9817084 0 0.1903914 -0.7933528 -0.6087622 0 0.7933528 -0.6087622 0 0.1305264 0 0.9914448 0.1305258 0 0.991445 -0.9914449 0 0.1305261 -0.9914449 0 0.1305261 -0.6087622 -0.7933529 0 -0.6087625 -0.7933526 0 0.6087622 -0.7933529 0 0.6087625 -0.7933526 0 -1.99083e-6 0 1 0 0 1 3.12276e-6 0 1 3.3571e-6 0 1 -3.23146e-6 0 1 4.05483e-7 0 1 2.02741e-6 0 1 -2.65605e-6 0 1 0 0 1 1.73116e-6 0 1 -1.90253e-6 0 1 -3.28473e-6 0 1 2.48134e-7 0 1 2.45213e-6 0 1 -2.25622e-6 0 1 4.15037e-6 0 1 3.18957e-6 0 1 6.47713e-6 0 1 -3.50156e-6 0 1 -6.73465e-7 0 1 0 0 1 -1.27675e-6 0 1 5.22937e-7 0 1 1.1104e-6 0 1 -1.43228e-6 0 1 1.30198e-6 0 1 7.51761e-7 0 1 -0.222521 0 -0.9749279 -0.2278537 0 -0.9736955 -0.227853 0 -0.9736956 1 0 0 0.9992663 0 0.03830313 0.9992662 0 0.03830313 -0.3826829 -0.9238798 0 -0.382683 -0.9238798 0 0.3826829 -0.9238798 0 0.382683 -0.9238798 0 -0.07472985 0 -0.9972038 -0.07473129 0 -0.9972037 -0.1305261 0 0.9914449 -0.1305267 0 0.9914448 0 -1 0 0 -1 1.09819e-6 0 -1 -5.95884e-7 0 -1 -3.41976e-7 0 -1 9.53414e-7 0 -1 -1.02955e-6 0 -1 1.54109e-7 0 -1 0 0 -1 1.53611e-7 0 -1 5.57829e-7 0 -1 -1.23586e-6 0 -1 2.77898e-7 0 -1 -7.66454e-7 0 -1 1.39355e-7 0 -1 -2.4624e-6 0 -1 2.08778e-7 0 -1 2.47171e-6 0 -1 -2.08424e-7 0 -1 4.61699e-7 0 -1 -5.57829e-7 0 -1 -1.39355e-7 0 -1 7.66454e-7 0 -1 -1.53611e-7 0 -1 -5.94985e-7 0 -1 3.41976e-7 0.9934021 0 -0.1146838 0.9934021 0 -0.1146838 -0.9238793 0 0.3826842 -0.9238793 0 0.3826841 -0.1305263 -0.9914449 0 -0.1305263 -0.9914449 0 0.1305263 -0.9914449 0 -0.07654935 0 -0.9970659 -0.07654935 0 -0.9970659 0.9642536 0 -0.2649813 0.9642536 0 -0.2649814 -0.7933542 0 0.6087604 -0.7933539 0 0.6087607 0.07654941 0 -0.9970659 0.07654947 0 -0.9970659 -0.382684 0 0.9238794 -0.3826835 0 0.9238796 -0.6087614 0 0.7933535 -0.608761 0 0.7933537 0.9125036 0 -0.4090688 0.9125036 0 -0.4090687 0 0 -1 1.49419e-6 0 -1 3.3571e-6 0 -1 -3.50156e-6 0 -1 6.47713e-6 0 -1 -5.61289e-6 0 -1 4.15037e-6 0 -1 1.30198e-6 0 -1 -8.19989e-7 0 -1 4.8744e-6 0 -1 0 0 -1 -1.11716e-6 0 -1 -1.4681e-7 0 -1 1.78709e-6 0 -1 -3.30743e-6 0 -1 2.02741e-6 0 -1 -2.25825e-6 0 -1 -1.90253e-6 0 -1 1.24536e-7 0 -1 -5.10894e-7 0 -1 -2.65605e-6 0 -1 -2.25622e-6 0 -1 2.05639e-6 0 -1 2.48134e-7 0 -1 0.8393656 0 -0.5435675 0.2278529 0 -0.9736956 0.2278537 0 -0.9736954 0 1 0 0 1 6.47259e-7 0 1 3.23648e-7 0 1 -4.24832e-7 0 1 1.53597e-6 0 1 -8.08103e-7 0 1 -6.47337e-7 0 1 1.04926e-6 0 1 -1.01119e-6 0 1 -2.71343e-6 0 1 -3.2302e-7 0 1 6.47017e-7 0 1 -2.08304e-6 0 1 2.21603e-6 0 1 -4.85503e-7 0 1 -6.46833e-7 0 1 3.23173e-7 0 1 -1.29021e-6 0 1 6.46344e-7 0 1 -6.46834e-7 0 1 -2.71342e-6 0 1 3.23508e-7 0 1 -6.47214e-7 0 1 6.47261e-7 0 1 -2.10107e-6 0 1 2.74859e-6 0 1 -3.23661e-7 0 1 2.71665e-6 0 1 -3.23465e-7 0 1 1.29386e-6 0 1 3.23099e-7 0 1 -3.23661e-7 0 1 6.45509e-7 0 1 -6.47216e-7 0.7465532 0 -0.6653258 0.7465534 0 -0.6653256 0.3738172 0 -0.9275025 0.3738166 0 -0.9275026 0.6362426 0 -0.7714892 0.636242 0 -0.7714897 0.5110187 0 -0.8595696 0 1 -1.86001e-6 0 1 4.54236e-6 0 1 -3.59922e-7 0 1 4.13435e-7 0 1 0 0 1 6.1909e-7 0 1 6.25511e-7 0 1 1.76682e-6 0 1 3.44305e-6 0 1 -3.41529e-6 0 1 3.38869e-6 0 1 -3.36318e-6 0 1 1.66936e-6 0 1 8.17849e-7 0 1 -3.04767e-7 0 1 -1.40808e-6 0 1 4.03893e-7 0 1 3.53811e-7 0 1 8.03094e-7 0 1 -3.55556e-7 0 1 7.14535e-7 0 1 -1.44215e-6 0 1 2.92068e-6 0 1 2.17612e-7 0 1 -3.36056e-6 0 1 5.19201e-6 0 1 -3.52077e-6</float_array>
          <technique_common>
            <accessor source="#link_0-mesh-normals-array" count="358" stride="3">
              <param name="X" type="float"/>
              <param name="Y" type="float"/>
              <param name="Z" type="float"/>
            </accessor>
          </technique_common>
        </source>
        <vertices id="link_0-mesh-vertices">
          <input semantic="POSITION" source="#link_0-mesh-positions"/>
        </vertices>
        <triangles material="Material_001-material" count="500">
          <input semantic="VERTEX" source="#link_0-mesh-vertices" offset="0"/>
          <input semantic="NORMAL" source="#link_0-mesh-normals" offset="1"/>
          <p>0 0 1 0 2 0 2 1 1 1 3 1 4 2 5 2 6 2 6 3 5 3 7 3 2 4 8 4 0 4 0 5 8 5 9 5 1 6 10 6 3 6 3 7 10 7 11 7 6 8 12 8 4 8 4 9 12 9 13 9 10 10 14 10 11 10 11 11 14 11 15 11 12 12 16 12 13 12 13 13 16 13 17 13 5 14 18 14 7 14 7 14 18 14 19 14 8 15 20 15 9 15 9 16 20 16 21 16 16 17 22 17 17 17 17 18 22 18 23 18 24 19 25 19 26 19 26 20 25 20 27 20 14 21 28 21 15 21 15 21 28 21 29 21 26 22 30 22 24 22 24 23 30 23 31 23 22 24 32 24 23 24 23 25 32 25 33 25 18 26 34 26 19 26 19 26 34 26 35 26 20 27 36 27 21 27 21 28 36 28 37 28 28 29 38 29 29 29 29 30 38 30 39 30 25 31 40 31 27 31 27 32 40 32 41 32 38 33 42 33 39 33 39 34 42 34 43 34 30 35 44 35 31 35 31 36 44 36 45 36 32 37 46 37 33 37 33 38 46 38 47 38 34 39 48 39 35 39 35 40 48 40 49 40 36 41 50 41 37 41 37 42 50 42 51 42 46 43 52 43 47 43 47 44 52 44 53 44 40 45 54 45 41 45 41 46 54 46 55 46 42 47 56 47 43 47 43 48 56 48 57 48 58 49 59 49 60 49 60 50 59 50 61 50 52 51 62 51 53 51 53 52 62 52 63 52 64 53 65 53 66 53 66 54 65 54 67 54 48 55 68 55 49 55 49 56 68 56 69 56 50 57 70 57 51 57 51 58 70 58 71 58 56 59 72 59 57 59 57 60 72 60 73 60 62 61 74 61 63 61 63 62 74 62 75 62 66 63 76 63 64 63 64 63 76 63 77 63 54 64 78 64 55 64 55 65 78 65 79 65 68 66 80 66 69 66 69 67 80 67 81 67 59 68 82 68 61 68 61 69 82 69 83 69 67 70 65 70 84 70 84 71 65 71 85 71 86 72 79 72 87 72 87 73 79 73 78 73 70 74 88 74 71 74 71 74 88 74 89 74 72 75 90 75 73 75 73 76 90 76 91 76 74 77 92 77 75 77 75 78 92 78 93 78 94 79 95 79 96 79 96 79 95 79 97 79 98 80 99 80 100 80 100 80 99 80 101 80 76 81 102 81 77 81 77 82 102 82 103 82 87 83 104 83 86 83 86 84 104 84 105 84 106 85 81 85 107 85 107 86 81 86 80 86 82 87 108 87 83 87 83 88 108 88 109 88 85 89 110 89 84 89 84 89 110 89 111 89 104 90 112 90 105 90 105 91 112 91 113 91 114 92 115 92 116 92 116 93 115 93 117 93 88 94 118 94 89 94 89 95 118 95 119 95 90 96 120 96 91 96 91 97 120 97 121 97 92 98 122 98 93 98 93 99 122 99 123 99 95 100 124 100 97 100 97 101 124 101 125 101 99 102 126 102 101 102 101 103 126 103 127 103 102 104 128 104 103 104 103 105 128 105 129 105 116 106 130 106 114 106 114 107 130 107 131 107 112 108 132 108 113 108 113 109 132 109 133 109 115 110 134 110 117 110 117 111 134 111 135 111 106 112 107 112 136 112 136 113 107 113 137 113 108 114 138 114 109 114 109 115 138 115 139 115 140 116 141 116 142 116 142 116 141 116 143 116 141 117 127 117 143 117 143 118 127 118 126 118 142 119 144 119 140 119 140 119 144 119 145 119 130 120 146 120 131 120 131 121 146 121 147 121 110 122 148 122 111 122 111 123 148 123 149 123 134 124 150 124 135 124 135 125 150 125 151 125 150 126 136 126 151 126 151 127 136 127 137 127 120 128 152 128 121 128 121 129 152 129 153 129 122 130 154 130 123 130 123 130 154 130 155 130 156 131 157 131 158 131 158 132 157 132 159 132 124 133 160 133 125 133 125 134 160 134 161 134 128 135 162 135 129 135 129 136 162 136 163 136 144 137 164 137 145 137 145 138 164 138 165 138 166 139 147 139 167 139 167 140 147 140 146 140 132 141 168 141 133 141 133 142 168 142 169 142 170 143 171 143 172 143 172 144 171 144 173 144 138 145 174 145 139 145 139 146 174 146 175 146 157 147 176 147 159 147 159 147 176 147 177 147 176 148 161 148 177 148 177 148 161 148 160 148 178 149 179 149 180 149 180 150 179 150 181 150 167 151 182 151 166 151 166 152 182 152 183 152 148 153 184 153 149 153 149 154 184 154 185 154 168 155 186 155 169 155 169 156 186 156 187 156 180 157 188 157 178 157 178 157 188 157 189 157 190 158 170 158 191 158 191 158 170 158 172 158 152 159 192 159 153 159 153 160 192 160 193 160 154 161 194 161 155 161 155 162 194 162 195 162 162 163 196 163 163 163 163 163 196 163 197 163 182 164 198 164 183 164 183 165 198 165 199 165 188 166 200 166 189 166 189 166 200 166 201 166 202 167 190 167 203 167 203 167 190 167 191 167 174 168 204 168 175 168 175 169 204 169 205 169 206 170 207 170 208 170 208 171 207 171 209 171 200 172 210 172 201 172 201 173 210 173 211 173 203 174 212 174 202 174 202 175 212 175 213 175 176 176 118 176 161 176 161 177 118 177 184 177 161 178 184 178 125 178 119 177 190 177 202 177 214 177 210 177 215 177 215 179 210 179 200 179 99 180 65 180 64 180 65 181 99 181 85 181 176 182 157 182 118 182 118 183 157 183 216 183 118 184 216 184 119 184 119 185 216 185 170 185 119 186 170 186 190 186 202 187 213 187 119 187 119 188 213 188 217 188 119 177 217 177 215 177 215 189 217 189 218 189 215 190 218 190 214 190 200 177 188 177 215 177 215 191 188 191 180 191 215 177 180 177 197 177 197 192 180 192 219 192 197 193 219 193 144 193 144 194 142 194 197 194 197 177 142 177 143 177 197 177 143 177 163 177 163 195 143 195 126 195 99 177 220 177 85 177 85 196 220 196 97 196 85 197 97 197 110 197 110 198 97 198 125 198 110 177 125 177 148 177 148 199 125 199 184 199 64 177 77 177 99 177 99 200 77 200 103 200 99 177 103 177 126 177 126 201 103 201 129 201 126 202 129 202 163 202 192 203 221 203 193 203 193 203 221 203 222 203 194 204 223 204 195 204 195 205 223 205 224 205 196 206 225 206 197 206 197 206 225 206 215 206 198 207 226 207 199 207 199 208 226 208 227 208 210 209 214 209 211 209 211 210 214 210 228 210 212 211 229 211 213 211 213 212 229 212 217 212 230 213 222 213 231 213 231 214 222 214 221 214 204 215 232 215 205 215 205 216 232 216 233 216 230 217 185 217 234 217 27 217 41 217 36 217 209 218 235 218 185 218 185 219 235 219 236 219 185 220 236 220 234 220 113 221 133 221 184 221 184 222 133 222 169 222 184 217 169 217 185 217 185 223 169 223 237 223 185 224 237 224 209 224 234 217 232 217 230 217 230 217 232 217 204 217 230 217 204 217 222 217 222 225 204 225 174 225 138 217 153 217 174 217 174 217 153 217 193 217 174 217 193 217 222 217 82 217 73 217 108 217 108 226 73 226 91 226 108 227 91 227 138 227 138 228 91 228 121 228 138 217 121 217 153 217 59 217 43 217 82 217 82 229 43 229 57 229 82 230 57 230 73 230 238 231 29 231 59 231 59 232 29 232 39 232 59 217 39 217 43 217 26 217 3 217 30 217 30 217 3 217 11 217 30 233 11 233 238 233 238 234 11 234 15 234 238 217 15 217 29 217 36 217 41 217 50 217 50 235 41 235 55 235 50 217 55 217 70 217 36 217 20 217 27 217 27 236 20 236 8 236 27 217 8 217 26 217 26 237 8 237 2 237 26 238 2 238 3 238 70 217 55 217 88 217 88 239 55 239 79 239 88 217 79 217 118 217 118 217 79 217 86 217 118 217 86 217 184 217 184 240 86 240 105 240 184 241 105 241 113 241 239 242 227 242 240 242 240 243 227 243 226 243 207 244 241 244 209 244 209 245 241 245 235 245 214 246 242 246 228 246 228 247 242 247 243 247 244 248 217 248 245 248 245 248 217 248 229 248 223 249 246 249 224 249 224 250 246 250 247 250 240 251 248 251 239 251 239 252 248 252 249 252 236 253 235 253 250 253 250 254 235 254 241 254 246 255 251 255 247 255 247 256 251 256 252 256 232 257 234 257 233 257 233 258 234 258 253 258 234 259 236 259 253 259 253 260 236 260 250 260 248 261 254 261 249 261 249 262 254 262 255 262 76 263 66 263 67 263 140 263 196 263 141 263 141 264 196 264 162 264 141 263 162 263 127 263 189 263 201 263 225 263 225 265 201 265 211 265 140 266 145 266 196 266 196 267 145 267 256 267 196 263 256 263 225 263 225 268 256 268 178 268 225 269 178 269 189 269 162 263 128 263 127 263 127 270 128 270 102 270 127 263 102 263 101 263 102 263 76 263 101 263 101 271 76 271 67 271 101 272 67 272 257 272 257 273 67 273 84 273 257 263 84 263 95 263 95 274 84 274 111 274 95 263 111 263 124 263 124 275 111 275 149 275 124 263 149 263 160 263 160 276 149 276 185 276 160 277 185 277 177 277 177 263 185 263 230 263 177 278 230 278 159 278 231 279 212 279 203 279 203 263 191 263 231 263 231 280 191 280 172 280 231 281 172 281 230 281 230 282 172 282 258 282 230 283 258 283 159 283 211 263 228 263 225 263 225 284 228 284 259 284 225 263 259 263 231 263 231 285 259 285 229 285 231 286 229 286 212 286 260 287 255 287 261 287 261 287 255 287 254 287 251 288 262 288 252 288 252 289 262 289 263 289 81 290 78 290 54 290 40 290 49 290 54 290 54 290 49 290 69 290 54 290 69 290 81 290 31 290 12 290 24 290 24 291 12 291 6 291 24 290 6 290 25 290 104 290 114 290 112 290 112 292 114 292 131 292 112 290 131 290 132 290 81 290 106 290 78 290 78 290 106 290 136 290 78 293 136 293 87 293 264 290 22 290 31 290 31 294 22 294 16 294 31 295 16 295 12 295 83 290 52 290 61 290 61 296 52 296 46 296 61 290 46 290 264 290 264 297 46 297 32 297 264 298 32 298 22 298 250 299 241 299 260 299 207 290 249 290 241 290 241 300 249 300 255 300 241 301 255 301 260 301 168 290 199 290 206 290 206 302 199 302 227 302 206 290 227 290 207 290 207 303 227 303 239 303 207 304 239 304 249 304 136 290 150 290 87 290 87 290 150 290 134 290 87 290 134 290 104 290 104 305 134 305 115 305 104 306 115 306 114 306 6 307 7 307 25 307 25 290 7 290 19 290 25 290 19 290 40 290 40 308 19 308 35 308 40 309 35 309 49 309 109 310 74 310 83 310 83 311 74 311 62 311 83 290 62 290 52 290 205 290 223 290 175 290 175 312 223 312 194 312 175 290 194 290 139 290 131 290 147 290 132 290 132 313 147 313 166 313 132 290 166 290 168 290 168 314 166 314 183 314 168 315 183 315 199 315 194 290 154 290 139 290 139 316 154 316 122 316 139 317 122 317 109 317 109 290 122 290 92 290 109 318 92 318 74 318 233 290 251 290 205 290 205 290 251 290 246 290 205 290 246 290 223 290 260 319 265 319 250 319 250 320 265 320 266 320 250 290 266 290 253 290 253 321 266 321 267 321 253 290 267 290 233 290 233 322 267 322 262 322 233 323 262 323 251 323 261 324 268 324 260 324 260 325 268 325 265 325 262 326 267 326 263 326 263 327 267 327 269 327 266 328 265 328 270 328 270 329 265 329 268 329 267 330 266 330 269 330 269 330 266 330 270 330 116 331 117 331 215 331 182 290 167 290 215 290 117 290 135 290 215 290 215 332 135 332 151 332 215 333 151 333 119 333 167 290 146 290 215 290 215 290 146 290 130 290 215 334 130 334 116 334 248 290 225 290 254 290 254 290 225 290 261 290 248 290 240 290 225 290 225 335 240 335 226 335 225 290 226 290 215 290 215 336 226 336 198 336 215 337 198 337 182 337 151 338 137 338 119 338 119 290 137 290 107 290 119 290 107 290 89 290 89 290 107 290 80 290 89 290 80 290 71 290 71 290 80 290 68 290 71 290 68 290 51 290 51 339 68 339 48 339 51 290 48 290 37 290 37 340 48 340 34 340 37 290 34 290 21 290 21 341 34 341 18 341 21 290 18 290 9 290 9 342 18 342 5 342 9 290 5 290 0 290 0 343 5 343 4 343 0 290 4 290 1 290 1 290 4 290 13 290 1 290 13 290 10 290 10 290 13 290 17 290 10 290 17 290 14 290 14 344 17 344 23 344 14 290 23 290 28 290 28 345 23 345 33 345 28 346 33 346 38 346 38 347 33 347 47 347 38 348 47 348 42 348 42 349 47 349 53 349 42 350 53 350 56 350 56 290 53 290 63 290 56 351 63 351 72 351 72 290 63 290 75 290 72 290 75 290 90 290 90 290 75 290 93 290 90 352 93 352 120 352 120 290 93 290 123 290 120 290 123 290 152 290 152 290 123 290 155 290 152 290 155 290 192 290 192 290 155 290 195 290 192 353 195 353 221 353 221 290 195 290 224 290 221 290 224 290 231 290 269 290 270 290 225 290 225 354 270 354 268 354 225 290 268 290 261 290 224 290 247 290 231 290 231 290 247 290 252 290 231 355 252 355 225 355 225 356 252 356 263 356 225 357 263 357 269 357</p>
        </triangles>
      </mesh>
    </geometry>
  </library_geometries>
  <library_controllers/>
  <library_visual_scenes>
    <visual_scene id="Scene" name="Scene">
      <node id="Camera" name="Camera" type="NODE">
        <matrix sid="transform">0.6859207 -0.3240135 0.6515582 7.481132 0.7276763 0.3054208 -0.6141704 -6.50764 0 0.8953956 0.4452714 5.343665 0 0 0 1</matrix>
        <instance_camera url="#Camera-camera"/>
      </node>
      <node id="Lamp" name="Lamp" type="NODE">
        <matrix sid="transform">-0.2908646 -0.7711008 0.5663932 4.076245 0.9551712 -0.1998834 0.2183912 1.005454 -0.05518906 0.6045247 0.7946723 5.903862 0 0 0 1</matrix>
        <instance_light url="#Lamp-light"/>
      </node>
      <node id="link_0" name="link_0" type="NODE">
        <matrix sid="transform">1 0 0 0 0 1 0 0 0 0 1 0 0 0 0 1</matrix>
        <instance_geometry url="#link_0-mesh" name="link_0">
          <bind_material>
            <technique_common>
              <instance_material symbol="Material_001-material" target="#Material_001-material"/>
            </technique_common>
          </bind_material>
        </instance_geometry>
      </node>
    </visual_scene>
  </library_visual_scenes>
  <scene>
    <instance_visual_scene url="#Scene"/>
  </scene>
</COLLADA>
